{
  "data_type": [1,1],
  "data_format": 5,
  "data": [
    ["MSG_1_endDate", "10:03:2013"],
    ["MSG_1_image", "FullTeamPromo.dds"],
    ["MSG_1_message", "Check your Challenges window now!"],
    ["MSG_1_message_de", "Check your Challenges window now!"],
    ["MSG_1_message_es", "Check your Challenges window now!"],
    ["MSG_1_message_fr", "Check your Challenges window now!"],
    ["MSG_1_message_it", "Check your Challenges window now!"],
    ["MSG_1_message_ja", "Check your Challenges window now!"],
    ["MSG_1_message_pl", "Check your Challenges window now!"],
    ["MSG_1_message_ru", "Check your Challenges window now!"],
    ["MSG_1_priority", "201"],
    ["MSG_1_title", "New Weekend Challenge Available"],
    ["MSG_1_title_de", "New Weekend Challenge Available"],
    ["MSG_1_title_es", "New Weekend Challenge Available"],
    ["MSG_1_title_fr", "New Weekend Challenge Available"],
    ["MSG_1_title_it", "New Weekend Challenge Available"],
    ["MSG_1_title_ja", "New Weekend Challenge Available"],
    ["MSG_1_title_pl", "New Weekend Challenge Available"],
    ["MSG_1_title_ru", "New Weekend Challenge Available"],
    ["MSG_1_trackingId", "150"],
    ["MSG_1_type", "8"],
  ]
}